module gitlab.com/gonarr/pkg

go 1.20

require (
	github.com/mattn/go-sqlite3 v2.0.3+incompatible
	github.com/sirupsen/logrus v1.7.0
	github.com/stretchr/testify v1.6.1
)

require (
	github.com/davecgh/go-spew v1.1.1 // indirect
	github.com/pmezard/go-difflib v1.0.0 // indirect
	golang.org/x/sys v0.0.0-20191026070338-33540a1f6037 // indirect
	gopkg.in/yaml.v3 v3.0.0-20200313102051-9f266ea9e77c // indirect
)
